{
    "username":"USERNAME",
    "password":"PASSWORD",
    "sharedsecret":"IAcvhAPG7lTuadfgdfgQIh+jZ2F8EvWAt0=",
    "identitysecret":"QI4drgdmJQLcNv+aLQgkO10asdfsaEQPo=",
    "bot64":"765611458363877101",
    "owner64":"76561198666150613286"
}